…
Calculate the total number of steps taken per day


```r
# calculate the total number of steps taken per day
total_steps_per_day = subset(act_data, !is.na(steps)) %>% 
    group_by(date) %>%
    summarise(total_per_day = sum(steps))

total_steps_per_day
```

```
## # A tibble: 53 × 2
##          date total_per_day
##        <fctr>         <int>
## 1  2012-10-02           126
## 2  2012-10-03         11352
## 3  2012-10-04         12116
## 4  2012-10-05         13294
## 5  2012-10-06         15420
## 6  2012-10-07         11015
## 7  2012-10-09         12811
## 8  2012-10-10          9900
## 9  2012-10-11         10304
## 10 2012-10-12         17382
## # ... with 43 more rows
```
…
Calculate and report the mean and median of the total number of steps taken per day


```r
# calculate the mean and the median of steps taken per day
mean_median_steps_by_dy = subset(act_data, !is.na(steps)) %>%
    group_by(date) %>%
    summarise(mean = mean(steps),
              median= median(steps))

mean_median_steps_by_dy
```

```
## # A tibble: 53 × 3
##          date     mean median
##        <fctr>    <dbl>  <dbl>
## 1  2012-10-02  0.43750      0
## 2  2012-10-03 39.41667      0
## 3  2012-10-04 42.06944      0
## 4  2012-10-05 46.15972      0
## 5  2012-10-06 53.54167      0
## 6  2012-10-07 38.24653      0
## 7  2012-10-09 44.48264      0
## 8  2012-10-10 34.37500      0
## 9  2012-10-11 35.77778      0
## 10 2012-10-12 60.35417      0
## # ... with 43 more rows
```
…
Make a histogram of the total number of steps taken each day and Calculate and report the mean and median total number of steps taken per day. Do these values differ from the estimates from the first part of the assignment? What is the impact of imputing missing data on the estimates of the total daily number of steps?


```r
summary_steps_per_day = act_data_noNAs %>% 
    group_by(date) %>%
    summarise(total_per_day = sum(steps),
              mean_per_day = mean(steps),
              median_per_day = median(steps))

summary_steps_per_day
```

```
## # A tibble: 61 × 4
##          date total_per_day mean_per_day median_per_day
##        <fctr>         <dbl>        <dbl>          <dbl>
## 1  2012-10-01      10766.19     37.38260       34.11321
## 2  2012-10-02        126.00      0.43750        0.00000
## 3  2012-10-03      11352.00     39.41667        0.00000
## 4  2012-10-04      12116.00     42.06944        0.00000
## 5  2012-10-05      13294.00     46.15972        0.00000
## 6  2012-10-06      15420.00     53.54167        0.00000
## 7  2012-10-07      11015.00     38.24653        0.00000
## 8  2012-10-08      10766.19     37.38260       34.11321
## 9  2012-10-09      12811.00     44.48264        0.00000
## 10 2012-10-10       9900.00     34.37500        0.00000
## # ... with 51 more rows
```
…
